Week,Quantity_TeaMe,Price_TeaMe,Price_TeaU,LastPrice_Wk1,LastPrice_Wk2,LastPrice_Wk3,Display,Feature
1,11617.21 ,1.4,3.18,3.21,2.71,2.83,1,1
2,6159.82 ,1.82,2.8,1.4,3.21,2.71,0,1
3,5416.82 ,2.05,2.48,1.82,1.4,3.21,0,1
4,3248.91 ,2.84,2.64,2.05,1.82,1.4,0,1
5,9939.00 ,1.46,2.53,2.84,2.05,1.82,1,1
6,3503.19 ,2.46,2.41,1.46,2.84,2.05,0,1
7,3321.10 ,2.78,2.4,2.46,1.46,2.84,0,1
8,4695.21 ,2.21,2.36,2.78,2.46,1.46,0,0
9,4811.54 ,2.55,2.93,2.21,2.78,2.46,0,0
10,3198.87 ,3.17,3.1,2.55,2.21,2.78,0,0
11,3049.01 ,3.18,2.41,3.17,2.55,2.21,0,0
12,3350.53 ,3.56,2.66,3.18,3.17,2.55,0,0
13,3839.29 ,3.05,2.41,3.56,3.18,3.17,1,1
14,3212.58 ,3.12,1.27,3.05,3.56,3.18,0,1
15,5480.48 ,2.04,1.81,3.12,3.05,3.56,1,1
16,5470.73 ,1.92,1.97,2.04,3.12,3.05,0,1
17,6920.14 ,1.52,2.6,1.92,2.04,3.12,0,1
18,7908.68 ,1.74,3.03,1.52,1.92,2.04,1,1
19,1898.35 ,3.92,3.21,1.74,1.52,1.92,0,0
20,4368.19 ,2.44,2.8,3.92,1.74,1.52,0,0
21,2809.90 ,2.93,3.07,2.44,3.92,1.74,0,0
22,3926.06 ,3.08,3.15,2.93,2.44,3.92,0,0
23,3411.94 ,3.26,3.39,3.08,2.93,2.44,0,0
24,2372.19 ,3.94,3.19,3.26,3.08,2.93,0,0
25,5192.84 ,2.91,3.4,3.94,3.26,3.08,0,0
26,3243.01 ,3.02,3.1,2.91,3.94,3.26,0,0
27,4321.24 ,2.51,2.86,3.02,2.91,3.94,0,0
28,4321.59 ,3.01,2.93,2.51,3.02,2.91,0,0
29,3413.04 ,3.33,3.14,3.01,2.51,3.02,0,0
30,2720.93 ,3.77,2.82,3.33,3.01,2.51,0,0
31,4866.37 ,2.99,3.05,3.77,3.33,3.01,0,0
32,2778.86 ,3.51,2.86,2.99,3.77,3.33,0,0
33,4511.89 ,2.9,3.33,3.51,2.99,3.77,0,0
34,5456.56 ,2.51,2.86,2.9,3.51,2.99,0,0
35,3173.26 ,3.35,3.15,2.51,2.9,3.51,0,0
36,3182.14 ,3.7,3.54,3.35,2.51,2.9,0,0
37,2630.46 ,3.08,1.22,3.7,3.35,2.51,0,0
38,4026.58 ,2.72,2.95,3.08,3.7,3.35,0,0
39,4713.43 ,2.8,3.35,2.72,3.08,3.7,0,0
40,3598.93 ,3.16,3,2.8,2.72,3.08,0,0
41,2527.02 ,3.95,2.46,3.16,2.8,2.72,0,0
42,2471.80 ,4,1.43,3.95,3.16,2.8,1,1
43,2343.61 ,4.7,3.19,4,3.95,3.16,0,1
44,4080.70 ,3.94,3.56,4.7,4,3.95,0,1
45,6486.81 ,3.12,3.76,3.94,4.7,4,0,0
46,3269.89 ,3.14,2.51,3.12,3.94,4.7,0,0
47,4288.48 ,3.11,2.64,3.14,3.12,3.94,0,0
48,2761.72 ,4.05,2.68,3.11,3.14,3.12,0,0
49,2963.51 ,4.15,2.52,4.05,3.11,3.14,0,0
50,4292.83 ,3.22,2.9,4.15,4.05,3.11,0,0
51,3744.45 ,3.22,2.91,3.22,4.15,4.05,0,0
52,3119.57 ,3.58,2.15,3.22,3.22,4.15,0,0
53,3276.35 ,3.41,2.9,3.58,3.22,3.22,0,0
54,2868.55 ,4.19,2.8,3.41,3.58,3.22,0,0
55,3710.69 ,3.84,3.05,4.19,3.41,3.58,0,0
56,3382.00 ,4,2.9,3.84,4.19,3.41,0,0
57,2774.91 ,3.97,2.41,4,3.84,4.19,0,0
58,3802.89 ,3.31,2.64,3.97,4,3.84,0,0
59,4269.49 ,2.86,2.63,3.31,3.97,4,0,0
60,3155.37 ,3.99,2.9,2.86,3.31,3.97,0,0
61,2373.70 ,4.45,2.89,3.99,2.86,3.31,0,0
62,7462.97 ,2.03,2.89,4.45,3.99,2.86,1,1
63,9447.08 ,1.67,3.3,2.03,4.45,3.99,1,1
64,6512.60 ,1.75,3,1.67,2.03,4.45,0,1
65,8494.72 ,1.49,3.46,1.75,1.67,2.03,1,1
66,3052.73 ,2.7,2.56,1.49,1.75,1.67,0,0
67,2488.86 ,3,1.27,2.7,1.49,1.75,0,0
68,2784.15 ,3.02,0.75,3,2.7,1.49,0,0
69,2679.11 ,3.41,2.48,3.02,3,2.7,0,0
70,3227.56 ,2.93,2.09,3.41,3.02,3,0,0
71,2950.04 ,3.01,1.51,2.93,3.41,3.02,0,0
72,2515.78 ,3.11,1.21,3.01,2.93,3.41,0,0
73,2787.34 ,3.06,2.44,3.11,3.01,2.93,0,0
74,4368.60 ,2.78,2.55,3.06,3.11,3.01,0,0
75,4552.33 ,2.8,3.05,2.78,3.06,3.11,0,0
76,3645.70 ,2.79,1.46,2.8,2.78,3.06,0,0
77,5144.44 ,2.05,2.55,2.79,2.8,2.78,0,0
78,3834.18 ,3.06,3.06,2.05,2.79,2.8,0,0
79,3815.33 ,2.94,2.84,3.06,2.05,2.79,0,0
80,4219.14 ,2.61,2.81,2.94,3.06,2.05,0,0
81,3324.12 ,3.09,2.93,2.61,2.94,3.06,0,0
82,3023.35 ,2.69,2.4,3.09,2.61,2.94,0,0
83,4407.53 ,2.12,2.66,2.69,3.09,2.61,1,0
84,5348.85 ,2.76,3.36,2.12,2.69,3.09,1,1
85,5252.00 ,2.33,3.2,2.76,2.12,2.69,0,0
86,4075.93 ,2.61,2.74,2.33,2.76,2.12,0,0
87,3700.76 ,2.85,3.16,2.61,2.33,2.76,0,0
88,3096.94 ,3.11,2.82,2.85,2.61,2.33,0,0
89,4279.03 ,3,3.43,3.11,2.85,2.61,0,0
90,6435.55 ,2.08,2.99,3,3.11,2.85,0,0
91,5940.40 ,1.83,1.68,2.08,3,3.11,1,1
92,2107.41 ,3.48,1.92,1.83,2.08,3,0,0
93,3108.71 ,3.11,2.95,3.48,1.83,2.08,0,0
94,2726.29 ,3.17,1.34,3.11,3.48,1.83,0,0
95,3756.19 ,2.97,2.62,3.17,3.11,3.48,0,0
96,4572.67 ,2.75,2.55,2.97,3.17,3.11,0,0
97,4166.35 ,2.88,3.19,2.75,2.97,3.17,0,0
98,4100.10 ,2.87,2.93,2.88,2.75,2.97,0,0
99,5046.73 ,2.81,3.14,2.87,2.88,2.75,0,0
100,3389.19 ,2.69,2.53,2.81,2.87,2.88,0,0
