Title,BoxOfficeGross,DVDRevenue,,,,
Skyfall,293.73,44.75,,,,
"The Twilight Saga: Breaking Dawn, Part 2",287.76,72.35,,,,
The Hobbit: An Unexpected Journey,246.29,40.67,,,,
Brave,237.24,13.66,,,,
Ted,218.67,21.64,,,, 
Wreck-It Ralph,177.32,54.56,,,,
Hotel Transylvania,145.71,49.76,,,,
Taken 2,139.08,43.04,,,,
Lincoln,138.68,36.73,,,,
Safe House ,126.18,18.94,,,,
The Bourne Legacy,113.2,9.93,,,,
Argo,109.32,23.97,,,,
Rise of the Guardians,94.56,37.31,,,,
Flight,92.23,21.05,,,,
Life of Pi,88.23,21.45,,,,
Les Miserables,87.49,33.21,,,,
Django Unchained,86.27,29.6,,,,
Looper,66.49,20.48,,,,
Tyler Perry's Madea's Witness Protection,65.65,14.88,,,,
Jack Reacher,55.5,13.4,,,,
Red Dawn,43.7,11.74,,,,
Frankenweenie,34.49,16.11,,,,
Silver Linings Playbook,31.06,16.58,,,,
Alex Cross,25.89,12.95,,,,
Dreed,13.41,10.53,,,,
Zero Dark Thirty,1.71,13.77,,,,
